Introduction to Micromorts and Risk Visualization • micromort
…
A micromort is a unit of risk representing a
one-in-a-million chance of death. It is used to measure acute
risks—risks that can kill you immediately (e.g., skydiving,
driving).

# 1 in 10,000 chance of death = 100 micromorts
prob <- 1/10000
as_micromort(prob)
#> [1] 100

# Compare common risks
risks <- common_risks()
print(risks)
#> # A tibble: 62 × 6
#>    activity                     micromorts microlives category period source_url
#>    <chr>                             <dbl>      <dbl> <chr>    <chr>  <chr>     
#>  1 Mt. Everest ascent                37932     26552. Mountai… per a… https://m…
#>  2 Himalayan mountaineering          12000      8400  Mountai… per e… https://m…
#>  3 COVID-19 infection (unvacci…      10000      7000  Disease  per i… https://m…
#>  4 Spanish flu infection              3000      2100  Disease  per i… https://m…
#>  5 Matterhorn ascent                  2840      1988  Mountai… per a… https://m…
#>  6 Living in US during COVID-1…        500       350  Disease  per m… https://m…
#>  7 Living (one day, age 90)            463       324. Daily L… per d… https://m…
#>  8 Base jumping (per jump)             430       301  Sport    per e… https://m…
#>  9 First day of life (newborn)         430       301  Daily L… per d… https://m…
#> 10 COVID-19 unvaccinated (age …        234       164. COVID-19 11 we… https://w…
#> # ℹ 52 more rows
…
