…
[`vaccination_risks()`](https://johngavin.github.io/micromort/reference/vaccination_risks.md),
[`conditional_risk()`](https://johngavin.github.io/micromort/reference/conditional_risk.md),
[`hedged_portfolio()`](https://johngavin.github.io/micromort/reference/hedged_portfolio.md)

Other conditional-risk:
[`conditional_risk()`](https://johngavin.github.io/micromort/reference/conditional_risk.md),
[`hedged_portfolio()`](https://johngavin.github.io/micromort/reference/hedged_portfolio.md),
[`vaccination_risks()`](https://johngavin.github.io/micromort/reference/vaccination_risks.md)

## Examples

``` r
cancer_risks()
#> # A tibble: 37 × 10
#>    cancer_type     sex    age_group deaths_per_100k micromorts_per_year
#>    <chr>           <chr>  <chr>               <dbl>               <dbl>
#>  1 Lung & Bronchus Male   All ages             37.2                 372
#>  2 Prostate        Male   All ages             19.2                 192
#>  3 Colon & Rectum  Male   All ages             15.3                 153
#>  4 Pancreas        Male   All ages             12.9                 129
#>  5 Liver           Male   All ages             10.2                 102
#>  6 Leukemia        Male   All ages              7.8                  78
#>  7 Esophagus       Male   All ages              7.1                  71
#>  8 Bladder         Male   All ages              6.5                  65
#>  9 All cancers     Male   All ages            184.                 1835
#> 10 Lung & Bronchus Female All ages             27.1                 271
#> # ℹ 27 more rows
#> # ℹ 5 more variables: microlives_per_day <dbl>, family_history_rr <dbl>,
#> #   micromorts_with_family_history <dbl>, rank_by_sex <int>, source_url <chr>
…
