Cancer Risks by Type, Sex, and Age — cancer_risks • micromort
…
Siegel RL, et al. Cancer statistics, 2024. CA Cancer J Clin. 2024;74:12-49.

    See also

    vaccination_risks(), conditional_risk(), hedged_portfolio()

Other conditional-risk:
conditional_risk(),
hedged_portfolio(),
vaccination_risks()

    Examples

cancer_risks()
#> # A tibble: 43 × 10
#>    cancer_type          sex   age_group deaths_per_100k micromorts_per_year
#>    <chr>                <chr> <chr>               <dbl>               <dbl>
#>  1 Lung & Bronchus      Male  All ages             37.2                 372
#>  2 Prostate             Male  All ages             19.2                 192
#>  3 Colon & Rectum       Male  All ages             15.3                 153
#>  4 Pancreas             Male  All ages             12.9                 129
#>  5 Liver                Male  All ages             10.2                 102
#>  6 Leukemia             Male  All ages              7.8                  78
#>  7 Esophagus            Male  All ages              7.1                  71
#>  8 Bladder              Male  All ages              6.5                  65
#>  9 Non-Hodgkin Lymphoma Male  All ages              5.6                  56
#> 10 Multiple Myeloma     Male  All ages              3.3                  33
#> # ℹ 33 more rows
#> # ℹ 5 more variables: microlives_per_day <dbl>, family_history_rr <dbl>,
#> #   micromorts_with_family_history <dbl>, rank_by_sex <int>, source_url <chr>
…
