Chronic Risks Dataset — chronic_risks • micromort
…
chronic |> dplyr::filter(direction == "gain")
#> # A tibble: 7 × 12
#>   record_id       factor factor_normalized microlives_per_day direction category
#>   <chr>           <chr>  <chr>                          <dbl> <chr>     <chr>   
#> 1 spiegelhalter_… Livin… living in sweden…                 21 gain      Demogra…
#> 2 spiegelhalter_… Livin… living in 2010 v…                 15 gain      Histori…
#> 3 spiegelhalter_… 5 ser… 5 servings fruit…                  4 gain      Diet    
#> 4 spiegelhalter_… Being… being female                       4 gain      Demogra…
#> 5 spiegelhalter_… 20 mi… 20 min moderate …                  2 gain      Exercise
#> 6 spiegelhalter_… First… first alcoholic …                  1 gain      Alcohol 
#> 7 spiegelhalter_… Stati… statin therapy                     1 gain      Medical 
#> # ℹ 6 more variables: description <chr>, annual_effect_days <dbl>,
#> #   source_id <chr>, source_url <chr>, confidence <chr>, last_accessed <date>
chronic_risks()
#> # A tibble: 38 × 7
#>    factor   microlives_per_day category direction description annual_effect_days
#>    <chr>                 <dbl> <chr>    <chr>     <chr>                    <dbl>
#>  1 Smoking…                -10 Smoking  loss      Heavy smok…              -76  
#>  2 Smoking…                 -5 Smoking  loss      Moderate s…              -38  
#>  3 Smoking…                 -1 Smoking  loss      Each cigar…               -7.6
#>  4 Being 5…                 -1 Weight   loss      Per 5 kg a…               -7.6
#>  5 Being 1…                 -2 Weight   loss      Cumulative…              -15.2
#>  6 Being 1…                 -3 Weight   loss      Cumulative…              -22.8
#>  7 2nd-3rd…                 -1 Alcohol  loss      After firs…               -7.6
#>  8 4th-5th…                 -2 Alcohol  loss      Heavy drin…              -15.2
#>  9 Red mea…                 -1 Diet     loss      Daily red …               -7.6
#> 10 Process…                 -1 Diet     loss      Bacon, sau…               -7.6
#> # ℹ 28 more rows
#> # ℹ 1 more variable: source_url <chr>
chronic_risks() |> dplyr::filter(direction == "loss")
#> # A tibble: 26 × 7
#>    factor   microlives_per_day category direction description annual_effect_days
#>    <chr>                 <dbl> <chr>    <chr>     <chr>                    <dbl>
#>  1 Smoking…                -10 Smoking  loss      Heavy smok…              -76  
#>  2 Smoking…                 -5 Smoking  loss      Moderate s…              -38  
#>  3 Smoking…                 -1 Smoking  loss      Each cigar…               -7.6
#>  4 Being 5…                 -1 Weight   loss      Per 5 kg a…               -7.6
#>  5 Being 1…                 -2 Weight   loss      Cumulative…              -15.2
#>  6 Being 1…                 -3 Weight   loss      Cumulative…              -22.8
#>  7 2nd-3rd…                 -1 Alcohol  loss      After firs…               -7.6
#>  8 4th-5th…                 -2 Alcohol  loss      Heavy drin…              -15.2
#>  9 Red mea…                 -1 Diet     loss      Daily red …               -7.6
#> 10 Process…                 -1 Diet     loss      Bacon, sau…               -7.6
#> # ℹ 16 more rows
#> # ℹ 1 more variable: source_url <chr>
…
