…
## Value

A tibble with columns: occupation, xray_count, career_years,
patient_micromorts, occupational_micromorts, ratio.

## See also

[`radiation_profiles()`](https://johngavin.github.io/micromort/reference/radiation_profiles.md),
[`atomic_risks()`](https://johngavin.github.io/micromort/reference/atomic_risks.md)

## Examples

``` r
patient_radiation_comparison()
#> # A tibble: 45 × 6
#>    occupation  xray_count career_years patient_micromorts occupational_micromo…¹
#>    <chr>            <dbl>        <dbl>              <dbl>                  <dbl>
#>  1 Airline pi…          1           10                0.1                   1.5 
#>  2 X-ray tech…          1           10                0.1                   0.5 
#>  3 Dental rad…          1           10                0.1                   0.1 
#>  4 Nuclear pl…          1           10                0.1                   1   
#>  5 Interventi…          1           10                0.1                   1.75
#>  6 Airline pi…         10           10                1                     1.5 
#>  7 X-ray tech…         10           10                1                     0.5 
#>  8 Dental rad…         10           10                1                     0.1 
#>  9 Nuclear pl…         10           10                1                     1   
#> 10 Interventi…         10           10                1                     1.75
#> # ℹ 35 more rows
#> # ℹ abbreviated name: ¹​occupational_micromorts
#> # ℹ 1 more variable: ratio <dbl>
…
