…
## See also

[`plot_risks()`](https://johngavin.github.io/micromort/reference/plot_risks.md),
[`common_risks()`](https://johngavin.github.io/micromort/reference/common_risks.md)

Other visualization:
[`plot_risks()`](https://johngavin.github.io/micromort/reference/plot_risks.md),
[`plot_risks_interactive()`](https://johngavin.github.io/micromort/reference/plot_risks_interactive.md)

## Examples

``` r
# All risks
prepare_risks_plot()
#> # A tibble: 61 × 10
#>    activity        micromorts microlives category period period_type period_days
#>    <chr>                <dbl>      <dbl> <chr>    <chr>  <chr>             <dbl>
#>  1 Mt. Everest as…      37932     26552. Mountai… per a… event                60
#>  2 Himalayan moun…      12000      8400  Mountai… per e… event                45
#>  3 COVID-19 infec…      10000      7000  COVID-19 per i… event                14
#>  4 Spanish flu in…       3000      2100  Disease  per i… event                14
#>  5 Matterhorn asc…       2840      1988  Mountai… per a… event                60
#>  6 Living in US d…        500       350  COVID-19 per m… month                30
#>  7 Living (one da…        463       324. Daily L… per d… day                   1
#>  8 Base jumping (…        430       301  Sport    per e… event                 1
#>  9 First day of l…        430       301  Daily L… per d… day                   1
#> 10 COVID-19 unvac…        234       164. COVID-19 11 we… period               77
#> # ℹ 51 more rows
#> # ℹ 3 more variables: micromorts_per_day <dbl>, source_url <chr>,
#> #   facet_group <fct>
…
# Exclude COVID-19
prepare_risks_plot(exclude_categories = "COVID-19")
#> # A tibble: 43 × 10
#>    activity        micromorts microlives category period period_type period_days
#>    <chr>                <dbl>      <dbl> <chr>    <chr>  <chr>             <dbl>
#>  1 Mt. Everest as…      37932     26552. Mountai… per a… event                60
#>  2 Himalayan moun…      12000      8400  Mountai… per e… event                45
#>  3 Spanish flu in…       3000      2100  Disease  per i… event                14
#>  4 Matterhorn asc…       2840      1988  Mountai… per a… event                60
#>  5 Living (one da…        463       324. Daily L… per d… day                   1
#>  6 Base jumping (…        430       301  Sport    per e… event                 1
#>  7 First day of l…        430       301  Daily L… per d… day                   1
#>  8 Caesarean birt…        170       119  Medical  per e… event                 1
#>  9 Scuba diving (…        164       115. Sport    per y… year                365
#> 10 Vaginal birth …        120        84  Medical  per e… event                 1
#> # ℹ 33 more rows
#> # ℹ 3 more variables: micromorts_per_day <dbl>, source_url <chr>,
#> #   facet_group <fct>
…
