…
[`demographic_factors()`](https://johngavin.github.io/micromort/reference/demographic_factors.md),
[`chronic_risks()`](https://johngavin.github.io/micromort/reference/chronic_risks.md)

Other regional:
[`laggard_regions()`](https://johngavin.github.io/micromort/reference/laggard_regions.md),
[`regional_mortality_multiplier()`](https://johngavin.github.io/micromort/reference/regional_mortality_multiplier.md),
[`vanguard_regions()`](https://johngavin.github.io/micromort/reference/vanguard_regions.md)

## Examples

``` r
# All data
regional_life_expectancy()
#> # A tibble: 17,221 × 9
#>    region_code region_name country_code  year sex    life_expectancy
#>    <chr>       <chr>       <chr>        <int> <chr>            <dbl>
#>  1 AT11        Burgenland  AT            1992 Female            79  
#>  2 AT11        Burgenland  AT            1992 Male              71.8
#>  3 AT11        Burgenland  AT            1992 Total             75.5
#>  4 AT11        Burgenland  AT            1993 Female            79.6
#>  5 AT11        Burgenland  AT            1993 Male              72.7
#>  6 AT11        Burgenland  AT            1993 Total             76.2
#>  7 AT11        Burgenland  AT            1994 Female            80  
#>  8 AT11        Burgenland  AT            1994 Male              72.5
#>  9 AT11        Burgenland  AT            1994 Total             76.3
#> 10 AT11        Burgenland  AT            1996 Female            79.7
#> # ℹ 17,211 more rows
#> # ℹ 3 more variables: microlives_vs_eu_avg <dbl>, classification <chr>,
#> #   source_url <chr>

# French regions in 2019
regional_life_expectancy(country = "FR", year = 2019)
#> # A tibble: 78 × 9
#>    region_code region_name           country_code  year sex    life_expectancy
#>    <chr>       <chr>                 <chr>        <int> <chr>            <dbl>
#>  1 FR10        Ile de France         FR            2019 Female            87.1
#>  2 FR10        Ile de France         FR            2019 Male              81.8
#>  3 FR10        Ile de France         FR            2019 Total             84.6
#>  4 FRB0        Centre — Val de Loire FR            2019 Female            85.7
#>  5 FRB0        Centre — Val de Loire FR            2019 Male              79.6
#>  6 FRB0        Centre — Val de Loire FR            2019 Total             82.7
#>  7 FRC1        Bourgogne             FR            2019 Female            85.6
#>  8 FRC1        Bourgogne             FR            2019 Male              79.3
#>  9 FRC1        Bourgogne             FR            2019 Total             82.4
#> 10 FRC2        Franche-Comté         FR            2019 Female            85.9
#> # ℹ 68 more rows
#> # ℹ 3 more variables: microlives_vs_eu_avg <dbl>, classification <chr>,
#> #   source_url <chr>
…
