Regional Life Expectancy in Western Europe — regional_life_expectancy • micromort
…
    See also

    demographic_factors(), chronic_risks()

Other regional:
laggard_regions(),
regional_mortality_multiplier(),
vanguard_regions()

    Examples

# All data
regional_life_expectancy()
#> # A tibble: 924 × 9
#>    region_code region_name             country_code  year sex    life_expectancy
#>  * <chr>       <chr>                   <chr>        <int> <chr>            <dbl>
#>  1 BE10        Brussels-Capital Region BE            1992 Female            80.5
#>  2 BE10        Brussels-Capital Region BE            1992 Male              74  
#>  3 BE10        Brussels-Capital Region BE            1992 Total             77  
#>  4 BE10        Brussels-Capital Region BE            1993 Female            80.6
#>  5 BE10        Brussels-Capital Region BE            1993 Male              74.1
#>  6 BE10        Brussels-Capital Region BE            1993 Total             77.1
#>  7 BE10        Brussels-Capital Region BE            1994 Female            80.7
#>  8 BE10        Brussels-Capital Region BE            1994 Male              74.2
#>  9 BE10        Brussels-Capital Region BE            1994 Total             77.2
#> 10 BE10        Brussels-Capital Region BE            1995 Female            80.8
#> # ℹ 914 more rows
#> # ℹ 3 more variables: microlives_vs_eu_avg <dbl>, classification <chr>,
#> #   source_url <chr>
…
